\relax 
\providecommand\hyper@newdestlabel[2]{}
\providecommand\HyperFirstAtBeginDocument{\AtBeginDocument}
\HyperFirstAtBeginDocument{\ifx\hyper@anchor\@undefined
\global\let\oldcontentsline\contentsline
\gdef\contentsline#1#2#3#4{\oldcontentsline{#1}{#2}{#3}}
\global\let\oldnewlabel\newlabel
\gdef\newlabel#1#2{\newlabelxx{#1}#2}
\gdef\newlabelxx#1#2#3#4#5#6{\oldnewlabel{#1}{{#2}{#3}}}
\AtEndDocument{\ifx\hyper@anchor\@undefined
\let\contentsline\oldcontentsline
\let\newlabel\oldnewlabel
\fi}
\fi}
\global\let\hyper@last\relax 
\gdef\HyperFirstAtBeginDocument#1{#1}
\providecommand\HyField@AuxAddToFields[1]{}
\providecommand\HyField@AuxAddToCoFields[2]{}
\@writefile{toc}{\contentsline {section}{\numberline {1}URL}{3}{section.1}}
\@writefile{toc}{\contentsline {section}{\numberline {2}Summary}{3}{section.2}}
\@writefile{toc}{\contentsline {section}{\numberline {3}Logical design}{3}{section.3}}
\@writefile{toc}{\contentsline {section}{\numberline {4}Physical design and contents of the tables}{4}{section.4}}
\@writefile{toc}{\contentsline {section}{\numberline {5}List of Applications}{4}{section.5}}
\@writefile{toc}{\contentsline {subsection}{\numberline {5.1}Applications on DB that do not take user input}{4}{subsection.5.1}}
\@writefile{toc}{\contentsline {section}{\numberline {6}User's guide}{4}{section.6}}
\@writefile{toc}{\contentsline {section}{\numberline {7}Implementation code}{5}{section.7}}
\@writefile{toc}{\contentsline {section}{\numberline {8}Conclusion}{5}{section.8}}
\@writefile{toc}{\contentsline {subsection}{\numberline {8.1}What we have done}{5}{subsection.8.1}}
\@writefile{toc}{\contentsline {subsection}{\numberline {8.2}What could we do with more time}{5}{subsection.8.2}}
