\contentsline {section}{\numberline {1}URL}{3}{section.1}
\contentsline {section}{\numberline {2}Summary}{3}{section.2}
\contentsline {section}{\numberline {3}Logical design}{3}{section.3}
\contentsline {section}{\numberline {4}Physical design and contents of the tables}{4}{section.4}
\contentsline {section}{\numberline {5}List of Applications}{4}{section.5}
\contentsline {subsection}{\numberline {5.1}Applications on DB that do not take user input}{4}{subsection.5.1}
\contentsline {section}{\numberline {6}User's guide}{4}{section.6}
\contentsline {section}{\numberline {7}Implementation code}{5}{section.7}
\contentsline {section}{\numberline {8}Conclusion}{5}{section.8}
\contentsline {subsection}{\numberline {8.1}What we have done}{5}{subsection.8.1}
\contentsline {subsection}{\numberline {8.2}What could we do with more time}{5}{subsection.8.2}
